0.000000000000000000e+00 1.000000000000000000e+00
2.500000000000000000e-01 1.000117620463988111e+00
5.000000000000000000e-01 1.000106008328350393e+00
7.500000000000000000e-01 1.000089750148726919e+00
1.000000000000000000e+00 1.000078899464628579e+00
1.250000000000000000e+00 1.000069387269507892e+00
1.500000000000000000e+00 1.000081029149325618e+00
1.750000000000000000e+00 1.000138768590097316e+00
2.000000000000000000e+00 1.000280058893500801e+00
2.250000000000000000e+00 1.000545475312305754e+00
2.500000000000000000e+00 1.000965991076732564e+00
2.750000000000000000e+00 1.001567782867341050e+00
3.000000000000000000e+00 1.002368395597851514e+00
3.250000000000000000e+00 1.003377428316477582e+00
3.500000000000000000e+00 1.004597509220705120e+00
3.750000000000000000e+00 1.006024709101718484e+00
4.000000000000000000e+00 1.007648799524091254e+00
4.250000000000000000e+00 1.009455274836406069e+00
4.500000000000000000e+00 1.011423422962524965e+00
4.750000000000000000e+00 1.013528525282570314e+00
5.000000000000000000e+00 1.015741443783466647e+00
5.250000000000000000e+00 1.018031966091615947e+00
5.500000000000000000e+00 1.020374317668051756e+00
5.750000000000000000e+00 1.022751356335513062e+00
6.000000000000000000e+00 1.025151244497324088e+00
6.250000000000000000e+00 1.027566073765609378e+00
6.500000000000000000e+00 1.029989848304584177e+00
6.750000000000000000e+00 1.032416995240923674e+00
7.000000000000000000e+00 1.034842589530036383e+00
7.250000000000000000e+00 1.037258679357517810e+00
7.500000000000000000e+00 1.039655187388465851e+00
7.750000000000000000e+00 1.042020101130287202e+00
8.000000000000000000e+00 1.044339256395000248e+00
8.250000000000000000e+00 1.046597513384884159e+00
8.500000000000000000e+00 1.048780124925642765e+00
8.750000000000000000e+00 1.050873176680550136e+00
9.000000000000000000e+00 1.052865133848901236e+00
9.250000000000000000e+00 1.054747198096370298e+00
9.500000000000000000e+00 1.056512373587153109e+00
9.750000000000000000e+00 1.058157019631171591e+00
1.000000000000000000e+01 1.059678887566923633e+00
1.025000000000000000e+01 1.061077828673406165e+00
1.050000000000000000e+01 1.062355365853654643e+00
1.075000000000000000e+01 1.063513022010706521e+00
1.100000000000000000e+01 1.064554336704342852e+00
1.125000000000000000e+01 1.065482784057109722e+00
1.150000000000000000e+01 1.066303616894705986e+00
1.175000000000000000e+01 1.067021397977394814e+00
1.200000000000000000e+01 1.067642159428912052e+00
1.225000000000000000e+01 1.068171171921474816e+00
1.250000000000000000e+01 1.068614265318261758e+00
1.275000000000000000e+01 1.068977156454491650e+00
1.300000000000000000e+01 1.069264842355742040e+00
1.325000000000000000e+01 1.069482795954789012e+00
1.350000000000000000e+01 1.069635907198098757e+00
1.375000000000000000e+01 1.069728602022606667e+00
1.400000000000000000e+01 1.069765734681739744e+00
1.425000000000000000e+01 1.069750666270077755e+00
1.450000000000000000e+01 1.069687876264128645e+00
1.475000000000000000e+01 1.069580648423558156e+00
1.500000000000000000e+01 1.069432653182630588e+00
1.525000000000000000e+01 1.069246983938133333e+00
1.550000000000000000e+01 1.069026668649614153e+00
1.575000000000000000e+01 1.068774616299822178e+00
1.600000000000000000e+01 1.068493081499107822e+00
1.625000000000000000e+01 1.068184675788222737e+00
1.650000000000000000e+01 1.067851403926237230e+00
1.675000000000000000e+01 1.067494967281380935e+00
1.700000000000000000e+01 1.067117334919691185e+00
1.725000000000000000e+01 1.066720309934563904e+00
1.750000000000000000e+01 1.066305178465199566e+00
1.775000000000000000e+01 1.065873721594290835e+00
1.800000000000000000e+01 1.065427439024392964e+00
1.825000000000000000e+01 1.064967262938727677e+00
1.850000000000000000e+01 1.064494841165974037e+00
1.875000000000000000e+01 1.064011087447946924e+00
1.900000000000000000e+01 1.063517165972637013e+00
1.925000000000000000e+01 1.063014014872100566e+00
1.950000000000000000e+01 1.062502932778108811e+00
1.975000000000000000e+01 1.061984252230816272e+00
2.000000000000000000e+01 1.061459317668055125e+00
2.025000000000000000e+01 1.060928444378347324e+00
2.050000000000000000e+01 1.060392724568710587e+00
2.075000000000000000e+01 1.059852503271863089e+00
