0.000000000000000000e+00 0.000000000000000000e+00
2.500000000000000000e-01 1.293399348441927721e+00
5.000000000000000000e-01 2.002106742209630585e+00
7.500000000000000000e-01 2.513409121813032776e+00
1.000000000000000000e+00 2.883248243626062912e+00
1.250000000000000000e+00 3.144458328611895226e+00
1.500000000000000000e+00 3.320527507082156049e+00
1.750000000000000000e+00 3.429457365439090299e+00
2.000000000000000000e+00 3.485352804532575011e+00
2.250000000000000000e+00 3.499365127478756499e+00
2.500000000000000000e+00 3.480371104815863870e+00
2.750000000000000000e+00 3.435489546742213740e+00
3.000000000000000000e+00 3.370482124645892252e+00
3.250000000000000000e+00 3.290057677053825902e+00
3.500000000000000000e+00 3.198098498583569427e+00
3.750000000000000000e+00 3.097818101983002226e+00
4.000000000000000000e+00 2.991865580736544405e+00
4.250000000000000000e+00 2.882391784702550641e+00
4.500000000000000000e+00 2.771087025495752254e+00
4.750000000000000000e+00 2.659197960339943378e+00
5.000000000000000000e+00 2.547472124645892233e+00
5.250000000000000000e+00 2.436165212464588059e+00
5.500000000000000000e+00 2.325520906515581743e+00
5.750000000000000000e+00 2.216284532577902144e+00
6.000000000000000000e+00 2.109410934844193175e+00
6.250000000000000000e+00 2.005651898016997503e+00
6.500000000000000000e+00 1.905502266288950475e+00
6.750000000000000000e+00 1.809266657223795649e+00
7.000000000000000000e+00 1.717121303116146969e+00
7.250000000000000000e+00 1.629169660056657420e+00
7.500000000000000000e+00 1.545432719546741218e+00
7.750000000000000000e+00 1.465890793201134246e+00
8.000000000000000000e+00 1.390503002832861545e+00
8.250000000000000000e+00 1.319207195467422045e+00
8.500000000000000000e+00 1.251932889518414971e+00
8.750000000000000000e+00 1.188623824362606385e+00
9.000000000000000000e+00 1.129280254957507390e+00
9.250000000000000000e+00 1.074101983002832661e+00
9.500000000000000000e+00 1.024769858356939789e+00
9.750000000000000000e+00 1.007914787535410417e+00
1.000000000000000000e+01 1.007749518413598500e+00
1.025000000000000000e+01 1.007588555240793271e+00
1.050000000000000000e+01 1.007432606232295802e+00
1.075000000000000000e+01 1.007279433427760829e+00
1.100000000000000000e+01 1.007129235127478761e+00
1.125000000000000000e+01 1.006983456090652096e+00
1.150000000000000000e+01 1.006840538243627403e+00
1.175000000000000000e+01 1.006701586402266146e+00
1.200000000000000000e+01 1.006565495750708417e+00
1.225000000000000000e+01 1.006432719546742183e+00
1.250000000000000000e+01 1.006303229461757986e+00
1.275000000000000000e+01 1.006176543909347743e+00
1.300000000000000000e+01 1.006053031161473266e+00
1.325000000000000000e+01 1.005932634560906536e+00
1.350000000000000000e+01 1.005815240793200394e+00
1.375000000000000000e+01 1.005700481586403017e+00
1.400000000000000000e+01 1.005588441926346777e+00
1.425000000000000000e+01 1.005479631728046108e+00
1.450000000000000000e+01 1.005372917847024095e+00
1.475000000000000000e+01 1.005269433427760761e+00
1.500000000000000000e+01 1.005167818696885540e+00
1.525000000000000000e+01 1.005068753541076720e+00
1.550000000000000000e+01 1.004971331444760585e+00
1.575000000000000000e+01 1.004877620396602333e+00
1.600000000000000000e+01 1.004786033994336192e+00
1.625000000000000000e+01 1.004696458923514557e+00
1.650000000000000000e+01 1.004608130311616554e+00
1.675000000000000000e+01 1.004522379603401960e+00
1.700000000000000000e+01 1.004438781869689601e+00
1.725000000000000000e+01 1.004357733711049416e+00
1.750000000000000000e+01 1.004277847025497161e+00
1.775000000000000000e+01 1.004200736543907402e+00
1.800000000000000000e+01 1.004124674220962410e+00
1.825000000000000000e+01 1.004051133144475472e+00
1.850000000000000000e+01 1.003976997167139729e+00
1.875000000000000000e+01 1.003906090651558669e+00
1.900000000000000000e+01 1.003838073654388596e+00
1.925000000000000000e+01 1.003770169971671455e+00
1.950000000000000000e+01 1.003701699716714080e+00
1.975000000000000000e+01 1.003639206798867756e+00
2.000000000000000000e+01 1.003574447592065155e+00
2.025000000000000000e+01 1.003510198300282541e+00
2.050000000000000000e+01 1.003449575070822331e+00
2.075000000000000000e+01 1.003390396600562617e+00
